cells.faces =
   1  12
   1   9
   1   8
   2   1
   2   2
   2   5
   3   3
   3   7
   3   2
   4   9
   4   6
   4   5
   5  13
   5  14
   5  12
   6   7
   6  10
   6   8
   7  11
   7  13
   7  10
   8   3
   8   4
   8  11


faces.nodes =
   1   1
   1   2
   2   1
   2   3
   3   1
   3   4
   4   1
   4   7
   5   2
   5   3
   6   2
   6   6
   7   3
   7   4
   8   3
   8   5
   9   3
   9   6
  10   4
  10   5
  11   4
  11   7
  12   5
  12   6
  13   5
  13   7
  14   6
  14   7


faces.neighbors =
   0   2
   2   3
   3   8
   8   0
   4   2
   0   4
   6   3
   1   6
   4   1
   6   7
   7   8
   1   5
   5   7
   0   5
